{
  "navigation": {
    "gioithieu.html": {
      "name": "Đối tác ",
      "icon" : "svg-hand-shake"
    },
    "tintuc.html": {
      "name": "Giới thiệu",
      "icon" : "svg-momo-logo"
    },
    "blogs.html": {
      "name": "Blog",
      "icon" : "svg-bookpen"
    },
    "hoidap.html": {
      "name": "Tin tức",
      "icon" : "svg-new"
    },
    "huongdan.html": {
      "name": "Hỏi đáp",
      "icon" : "svg-money-question"
    },
    "han.html": {
      "name": "Hướng dẫn",
      "icon" : "svg-momo-hand"
    },
    "tuyendung.html": {
      "name": "Tuyển dụng",
      "icon" : "svg-handshake"
    },
    "lienhe.html": {
      "name": "Liên hệ",
      "icon" : "svg-support"
    }
  },
  "mainPosts": [
    {
      "image": "https://media.foody.vn/images/blogs/s150x150/foody-ch%c3%b9a-t%c3%a2y-%e1%ba%a5n-636477475705791176.jpg",
      "content": "Đi trốn ngày lễ ở khu resort siêu sang giá chỉ từ 1tr1/người",
      "time": "15 phút trước",
      "comments": "2"
    },
    {
      "image": "https://media.foody.vn/images/blogs/s150x150/foody-thumb%20blog%20tr%e1%bb%a9ng-636477461567429293.jpg",
      "content": "Kinh nghiệm du lịch Đà Lạt giá rẻ từ A – Z",
      "time": "30 phút trước",
      "comments": "250"
    },
    {
      "image": "https://media.foody.vn/images/blogs/s150x150/foody-b%c3%a1nh%20tr%c3%a1ng%20k%e1%ba%b9p%20d%c3%ac%20hoa-636477448261986296.jpg",
      "content": "Kinh nghiệm du lịch Nhật Bản tự túc chi tiết đầy đủ nhất cho gà mờ",
      "time": "1 giờ trước",
      "comments": "1589"
    },
    {
      "image": "https://media.foody.vn/images/blogs/s150x150/foody-1111111-636477396834082372.jpg",
      "content": "Kinh nghiệm du lịch Hà Giang tự túc chi tiết nhất",
      "time": "1 giờ trước",
      "comments": "450"
    },
    {
      "image": "https://media.foody.vn/images/blogs/s150x150/foody-hahafgba-636477262047892542.jpg",
      "content": "Travel Blogger - Khi người trẻ đam mê kể chuyện du lịch",
      "time": "1 giờ trước",
      "comments": "255"
    }
  ],
  "cashbackCat" : [
    {
    "link" : "",
    "img" : "https://img.mservice.io/momo_app_v2/img/HoangLe/ic_fl_sieu_thi@3x.png",
    "title" : "Siêu thị - Cửa hàng tiện lợi",
    "score" : "Hoàn tiền từ 0,3% đến 5%"
    },
     {
    "link" : "",
    "img" : "https://img.mservice.io/momo_app_v2/img/HoangLe/ic_fl_cafe_dessert@3x.png",
    "title" : "Cafe/Dessert",
    "score" : "Hoàn tiền từ 0,3% đến 20%"
    },

    {
    "link" : "",
    "img" : "https://img.mservice.io/momo_app_v2/img/HoangLe/ic_fl_nha_hang@3x.png",
    "title" : "Nhà hàng - Quán ăn",
    "score" : "Hoàn tiền từ 0,3% đến 3%"
    },
    {
    "link" : "",
     "img" : "https://img.mservice.io/momo_app_v2/img/HoangLe/ic_fl_giai_tri@3x.png",
    "title" : "Giải trí",
    "score" : "Hoàn tiền từ 0,3% đến 5%"
    },
    {
    "link" : "",
    "img" : "https://img.mservice.io/momo_app_v2/img/HoangLe/ic_fl_mua_sam@3x.png",
    "title" : "Mua sắm",
    "score" : "Hoàn tiền từ 0,3% đến 5%"
    },
    {
    "link" : "",
    "img" : "https://img.mservice.io/momo_app_v2/img/HoangLe/ic_fl_du_lich@3x.png",
    "title" : "Du lịch - Vận chuyển",
    "score" : "Hoàn tiền từ 0,3% đến 5%"
    },
    {
    "link" : "",
    "img" : "https://img.mservice.io/momo_app_v2/img/HoangLe/ic_fl_tai_chinh@3x.png",
    "title" : "Tài chính - Bảo hiểm",
    "score" : "Hoàn tiền từ 0,3% đến 5%"
    },
    {
    "link" : "",
    "img" : "https://img.mservice.io/momo_app_v2/img/HoangLe/ic_fl_hoa_don@3x.png",
    "title" : "Thanh toán hóa đơn",
    "score" : "Hoàn tiền từ 0,3% đến 5%"
    },
    {
    "link" : "",
    "img" : "https://img.mservice.io/momo_app_v2/img/HoangLe/ic_fl_game@3x.png",
    "title" : "Game - Ứng dụng",
    "score" : "Hoàn tiền từ 0,3% đến 5%"
    },
    {
    "link" : "",
    "img" : "https://img.mservice.io/momo_app_v2/img/HoangLe/ic_fl_mua_sam_online@3x.png",
    "title" : "Mua sắm ONLINE",
    "score" : "Hoàn tiền từ 0,3% đến 5%"
    }
  ],
  "blogs" : [
    {
      "image" : "https://static.mservice.io/blogscontents/s770x370/momo-upload-api-191010165553-637063233530588351.jpg",
      "title" : "Ví MoMo hợp tác với bệnh viện Đại Học Y Dược TP.HCM: Đẩy mạnh thanh toán không tiền mặt tại bệnh viện",
      "date" : "10/10/2019",
      "desc" : "Ví MoMo hợp tác với bệnh viện Đại Học Y Dược TP.HCM: Đẩy mạnh thanh toán không tiền mặt tại bệnh viện",
      "cat" : "Mua sắm"
    },
    {
      "image" : "https://static.mservice.io/blogscontents/s770x370/momo-upload-api-191024145716-637075258369654799.jpg",
      "title" : "Tuần lễ vàng Giới Thiệu MoMo: Nhận đến 999.000đ Không Giới Hạn & Cùng tham gia ngày hội Siêu Hoàn Tiền 1.11",
      "date" : "5/12/2019",
      "desc" : "Tuần lễ vàng Giới Thiệu MoMo: Nhận đến 999.000đ Không Giới Hạn & Cùng tham gia ngày hội Siêu Hoàn Tiền 1.11",
      "cat" : "Ví MoMo"
    },
    {
      "image" : "https://static.mservice.io/blogscontents/s770x370/momo-upload-api-191016130928-637068281687759115.jpg",
      "title" : "Mở Ví MoMo, đổi 10 điểm, đón ưu đãi RedDoorz 30% đặt phòng và quà tặng trị giá 300.000 đồng ",
      "date" : "5/12/2019",
      "desc" : "Đi đâu loanh quanh cho đời mỏi mệt, sau một ngày khám phá chân trời mới toanh, chỉ việc truy cập vào ứng dụng/website RedDoorz đặt nhanh cho bản thân và bạn đồng hành khách sạn, nơi nghỉ ngơi giá hạt dẻ",
      "cat" : "Du lịch"
    },
    {
      "image" : "https://static.mservice.io/blogscontents/s770x370/momo-upload-api-190718082235-636990349556947470.jpg",
      "title" : "Tường Lửa - Gameshow có giải thưởng lớn nhất Việt Nam",
      "date" : "5/12/2019",
      "desc" : "Ví điện tử MoMo – siêu ứng dụng thanh toán số 1 Việt Nam hân hạnh đồng hành cùng công ty Aqua Blue và Đài truyền hình Việt Nam chính thức ra mắt gameshow “Tường lửa”.",
      "cat" : "Ăn uống"
    }

  ]
}
