<?xml version="1.0" encoding="utf-8"?>
<!-- Generator: Adobe Illustrator 22.1.0, SVG Export Plug-In . SVG Version: 6.00 Build 0)  -->
<svg version="1.1" id="Layer_1" xmlns="http://www.w3.org/2000/svg" xmlns:xlink="http://www.w3.org/1999/xlink" x="0px" y="0px"
	 viewBox="0 0 32 29.2" style="enable-background:new 0 0 32 29.2;" xml:space="preserve">
<title>gift-momo</title>
<g id="Layer_2_1_">
	<g id="Layer_1-2">
		<path d="M27.1,3.3C26.9,2.1,26,1,24.9,0.5c-1.2-0.6-2.6-0.6-3.9,0c-1.2,0.6-2.3,1.2-3.5,1.8v2.7H27C27.2,4.4,27.2,3.9,27.1,3.3z"
			/>
		<rect x="14.8" y="2.9" width="2.4" height="2"/>
		<path d="M14.5,4.9V2.2c-1.2-0.6-2.4-1.1-3.5-1.8c-1.2-0.6-2.6-0.6-3.8,0C6,1,5.1,2.1,4.9,3.3C4.8,3.9,4.8,4.4,5,4.9H14.5z"/>
		<path d="M32,7.8c-0.1-1.4-1.3-2.4-2.7-2.4H2.7C1.3,5.4,0.1,6.5,0,7.8c0.1,1.3,1.1,2.3,2.3,2.3c0,0.1,0,0.2,0,0.3v15.7
			c0,1.7,1.3,3,3,3c0,0,0,0,0,0h21.3c1.7,0,3-1.3,3-3V10.5c0-0.1,0-0.2,0-0.3C30.9,10.1,31.9,9.1,32,7.8z M15,28.1H5.7
			c-1.2,0-2.3-1-2.3-2.3v-6.3H15V28.1z M15,17.6H3.4v-6.9c0-0.2,0-0.4,0.1-0.5H15V17.6z M28.6,25.9c0,1.2-1,2.3-2.3,2.3H17v-8.6
			h11.6L28.6,25.9z M28.6,17.6H17v-7.4h11.5c0,0.2,0.1,0.4,0.1,0.5L28.6,17.6z"/>
	</g>
</g>
</svg>
