<?xml version="1.0" encoding="utf-8"?>
<!-- Generator: Adobe Illustrator 23.0.0, SVG Export Plug-In . SVG Version: 6.00 Build 0)  -->
<svg version="1.1" id="Layer_1" xmlns="http://www.w3.org/2000/svg" xmlns:xlink="http://www.w3.org/1999/xlink" x="0px" y="0px"
	 viewBox="0 0 32 31.5" style="enable-background:new 0 0 32 31.5;" xml:space="preserve">
<title>Asset 1</title>
<g>
	<path d="M26.2,23.3c0.6-1.4,0.8-2.9,0.8-4.4C27.1,12.3,21.7,7,15.1,7C8.5,7,3.2,12.3,3.2,18.9c0,1.5,0.3,3,0.8,4.4H0v8h30.2v-8
		H26.2z M15.1,7.9c6.1,0,11,4.9,11,11c0,1.6-0.3,3.2-1,4.7c-0.5,1.1-1.2,2-2,2.9c-0.1,0.1-0.1,0.1-0.2,0.2H22c2.2-2,3.4-4.8,3.4-7.7
		c0-5.7-4.7-10.4-10.4-10.4c-5.7,0-10.4,4.7-10.4,10.4c0,3,1.3,5.8,3.4,7.7H7.3c-0.1-0.1-0.1-0.1-0.2-0.2c-0.8-0.9-1.5-1.8-2-2.9
		c-0.7-1.5-1-3-1-4.7C4.1,12.8,9,7.9,15.1,7.9z M20.6,26.6H9.7c-2.5-1.8-4-4.7-4-7.7c0-5.2,4.2-9.5,9.5-9.5c5.2,0,9.5,4.2,9.5,9.5
		C24.6,22,23.1,24.9,20.6,26.6z M29.3,30.3H0.9v-6.1h3.5c0,0.1,0.1,0.1,0.1,0.2c0,0,0,0,0,0.1c0,0.1,0.1,0.2,0.1,0.2c0,0,0,0,0,0.1
		c0,0.1,0.1,0.1,0.1,0.2c0,0,0,0.1,0.1,0.1c0,0,0.1,0.1,0.1,0.1c0,0,0,0.1,0.1,0.1c0,0,0.1,0.1,0.1,0.1c0,0,0,0.1,0.1,0.1
		c0,0,0.1,0.1,0.1,0.1c0,0,0,0.1,0.1,0.1c0,0,0.1,0.1,0.1,0.1c0,0,0,0.1,0.1,0.1c0,0,0.1,0.1,0.1,0.1c0,0,0,0.1,0.1,0.1
		c0,0,0.1,0.1,0.1,0.1c0,0,0,0.1,0.1,0.1c0,0,0.1,0.1,0.1,0.1c0,0,0,0.1,0.1,0.1c0,0,0.1,0.1,0.1,0.1c0,0,0,0,0,0H3.9v0.9h3h2.5
		h11.5h2.5h3v-0.9h-2.1c0,0,0,0,0,0c0,0,0.1-0.1,0.1-0.1c0,0,0-0.1,0.1-0.1c0,0,0.1-0.1,0.1-0.1c0,0,0-0.1,0.1-0.1
		c0,0,0.1-0.1,0.1-0.1c0,0,0-0.1,0.1-0.1c0,0,0.1-0.1,0.1-0.1c0,0,0-0.1,0.1-0.1c0,0,0.1-0.1,0.1-0.1c0,0,0-0.1,0.1-0.1
		c0,0,0.1-0.1,0.1-0.1c0,0,0-0.1,0.1-0.1c0,0,0.1-0.1,0.1-0.1c0,0,0-0.1,0.1-0.1c0,0,0.1-0.1,0.1-0.1c0,0,0-0.1,0.1-0.1
		c0-0.1,0.1-0.1,0.1-0.2c0,0,0,0,0-0.1c0-0.1,0.1-0.1,0.1-0.2c0,0,0,0,0-0.1c0-0.1,0.1-0.1,0.1-0.2h3.5V30.3z"/>
	<rect x="11.7" y="1.1" width="0.9" height="5.3"/>
	<rect x="14.7" y="0.3" width="0.9" height="5.3"/>
	<rect x="17.6" y="1.1" width="0.9" height="5.3"/>
	<path d="M15.1,13.3c-2.6,0-4.7,2.1-4.7,4.7c0,2.6,2.1,4.7,4.7,4.7c2.6,0,4.7-2.1,4.7-4.7C19.8,15.4,17.7,13.3,15.1,13.3z
		 M17.8,20.1h-1.3v-2.8c0-0.2-0.1-0.3-0.3-0.3c-0.2,0-0.3,0.1-0.3,0.3l0,0v2.8h-1.3v-2.8v0c0-0.2-0.1-0.3-0.3-0.3
		c-0.2,0-0.3,0.1-0.3,0.3v2.8h-1.3v-2.8c0-0.8,0.7-1.5,1.7-1.5c0.4,0,0.7,0.1,1,0.3c0.3-0.2,0.6-0.3,1-0.3c0.9,0,1.7,0.7,1.7,1.5
		V20.1z"/>
</g>
</svg>
